Data Skills for the Digital World Assignment
…
Rows: 34 Columns: 4
── Column specification ────────────────────────────────────────────────────────
Delimiter: ","
chr (1): Label
dbl (3): Attractiveness, Prestige, Year

ℹ Use `spec()` to retrieve the full column specification for this data.
ℹ Specify the column types or set `show_col_types = FALSE` to quiet this message.

accent_bc

# A tibble: 34 × 4
   Label                   Attractiveness Prestige  Year
   <chr>                            <dbl>    <dbl> <dbl>
 1 Accent identical to own           4.87     4.14  2004
 2 Afro-Caribbean                    3.72     2.9   2004
 3 Asian/Indian                      3.21     2.74  2004
 4 Australian                        4.04     3.51  2004
 5 Belfast                           3.67     3.11  2004
 6 Birmingham                        2.92     2.7   2004
 7 Black Country                     3.16     2.81  2004
 8 Bristol                           3.64     3.22  2004
 9 Cardiff                           3.67     3.16  2004
10 Cornish                           4.22     3.38  2004
# ℹ 24 more rows
…
Rows: 34 Columns: 4
── Column specification ────────────────────────────────────────────────────────
Delimiter: ","
chr (1): Label
dbl (3): Attractiveness, Prestige, Year

ℹ Use `spec()` to retrieve the full column specification for this data.
ℹ Specify the column types or set `show_col_types = FALSE` to quiet this message.

accent_bc

# A tibble: 34 × 4
   Label                   Attractiveness Prestige  Year
   <chr>                            <dbl>    <dbl> <dbl>
 1 Accent identical to own           4.87     4.14  2004
 2 Afro-Caribbean                    3.72     2.9   2004
 3 Asian/Indian                      3.21     2.74  2004
 4 Australian                        4.04     3.51  2004
 5 Belfast                           3.67     3.11  2004
 6 Birmingham                        2.92     2.7   2004
 7 Black Country                     3.16     2.81  2004
 8 Bristol                           3.64     3.22  2004
 9 Cardiff                           3.67     3.16  2004
10 Cornish                           4.22     3.38  2004
# ℹ 24 more rows
…
          Region Attractiveness Prestige
1 Afro-Caribbean           3.72     2.90
2   Asian/Indian           3.21     2.74
3         French           4.09     3.74
4         German           3.20     3.21
5        Spanish           3.88     3.29

accent_bc <- accent_bc |> 
  mutate(Accent_Type = ifelse(Label %in% non_native_bc$Region, "Non-Native", "Native")) |> 
  mutate(Accent_Type = as.factor(Accent_Type))
accent_bc

# A tibble: 34 × 5
   Label                   Attractiveness Prestige  Year Accent_Type
   <chr>                            <dbl>    <dbl> <dbl> <fct>      
 1 Accent identical to own           4.87     4.14  2004 Native     
 2 Afro-Caribbean                    3.72     2.9   2004 Non-Native 
 3 Asian/Indian                      3.21     2.74  2004 Non-Native 
 4 Australian                        4.04     3.51  2004 Native     
 5 Belfast                           3.67     3.11  2004 Native     
 6 Birmingham                        2.92     2.7   2004 Native     
 7 Black Country                     3.16     2.81  2004 Native     
 8 Bristol                           3.64     3.22  2004 Native     
 9 Cardiff                           3.67     3.16  2004 Native     
10 Cornish                           4.22     3.38  2004 Native     
# ℹ 24 more rows
…
library(tidyverse)
accent_bc <- read_csv("datasets/uk_accents_bishop_coupland.csv")

Rows: 34 Columns: 4
── Column specification ────────────────────────────────────────────────────────
Delimiter: ","
chr (1): Label
dbl (3): Attractiveness, Prestige, Year

ℹ Use `spec()` to retrieve the full column specification for this data.
ℹ Specify the column types or set `show_col_types = FALSE` to quiet this message.

accent_bc

# A tibble: 34 × 4
   Label                   Attractiveness Prestige  Year
   <chr>                            <dbl>    <dbl> <dbl>
 1 Accent identical to own           4.87     4.14  2004
 2 Afro-Caribbean                    3.72     2.9   2004
 3 Asian/Indian                      3.21     2.74  2004
 4 Australian                        4.04     3.51  2004
 5 Belfast                           3.67     3.11  2004
 6 Birmingham                        2.92     2.7   2004
 7 Black Country                     3.16     2.81  2004
 8 Bristol                           3.64     3.22  2004
 9 Cardiff                           3.67     3.16  2004
10 Cornish                           4.22     3.38  2004
# ℹ 24 more rows

accent_sha <- read_csv("datasets/uk_accents_sharma_et_al.csv")

Rows: 38 Columns: 4
── Column specification ────────────────────────────────────────────────────────
Delimiter: ","
chr (1): Label
dbl (3): Attractiveness, Prestige, Year

ℹ Use `spec()` to retrieve the full column specification for this data.
ℹ Specify the column types or set `show_col_types = FALSE` to quiet this message.

accent_sha

# A tibble: 38 × 4
   Label                   Attractiveness Prestige  Year
   <chr>                            <dbl>    <dbl> <dbl>
 1 Accent identical to own           4.54     4.37  2019
 2 Afro-Caribbean                    4.02     3.52  2019
 3 Asian/Indian                      3.54     3.38  2019
 4 Australian                        4.44     4.17  2019
 5 Belfast                           3.87     3.63  2019
 6 Birmingham                        3.3      3.2   2019
 7 Black Country                     3.56     3.39  2019
 8 Bristol                           3.96     3.81  2019
 9 Cardiff                           4.1      3.85  2019
10 Chinese                           3.5      3.56  2019
# ℹ 28 more rows
…
          Region Attractiveness Prestige
1 Afro-Caribbean           3.72     2.90
2   Asian/Indian           3.21     2.74
3         French           4.09     3.74
4         German           3.20     3.21
5        Spanish           3.88     3.29

accent_bc <- accent_bc |> 
  mutate(Accent_Type = ifelse(Label %in% non_native_bc$Region, "Non-Native", "Native")) |> 
  mutate(Accent_Type = as.factor(Accent_Type))
accent_bc

# A tibble: 34 × 5
   Label                   Attractiveness Prestige  Year Accent_Type
   <chr>                            <dbl>    <dbl> <dbl> <fct>      
 1 Accent identical to own           4.87     4.14  2004 Native     
 2 Afro-Caribbean                    3.72     2.9   2004 Non-Native 
 3 Asian/Indian                      3.21     2.74  2004 Non-Native 
 4 Australian                        4.04     3.51  2004 Native     
 5 Belfast                           3.67     3.11  2004 Native     
 6 Birmingham                        2.92     2.7   2004 Native     
 7 Black Country                     3.16     2.81  2004 Native     
 8 Bristol                           3.64     3.22  2004 Native     
 9 Cardiff                           3.67     3.16  2004 Native     
10 Cornish                           4.22     3.38  2004 Native     
# ℹ 24 more rows
…
#Non-native Accent Sharma
accent_sha <- accent_sha |> 
  mutate(Accent_Type = ifelse(Label %in% non_native_sha$Region, "Non-Native", "Native")) |> 
  mutate(Accent_Type = as.factor(Accent_Type))
accent_sha

# A tibble: 38 × 5
   Label                   Attractiveness Prestige  Year Accent_Type
   <chr>                            <dbl>    <dbl> <dbl> <fct>      
 1 Accent identical to own           4.54     4.37  2019 Native     
 2 Afro-Caribbean                    4.02     3.52  2019 Non-Native 
 3 Asian/Indian                      3.54     3.38  2019 Non-Native 
 4 Australian                        4.44     4.17  2019 Native     
 5 Belfast                           3.87     3.63  2019 Native     
 6 Birmingham                        3.3      3.2   2019 Native     
 7 Black Country                     3.56     3.39  2019 Native     
 8 Bristol                           3.96     3.81  2019 Native     
 9 Cardiff                           4.1      3.85  2019 Native     
10 Chinese                           3.5      3.56  2019 Non-Native 
# ℹ 28 more rows
…
